FORMAT:           OCCAM2MTMOD_1.0
MODEL NAME:       MODEL FILE FROM MAKE2DMODEL
DESCRIPTION:      SIMPLE INVERSION
MESH FILE:        MESH
MESH TYPE:        PW2D
STATICS FILE:     none
PREJUDICE FILE:   none
BINDING OFFSET:   986.4
NUM LAYERS:       30
	2	16
 7 2 2 2 2 2 2 2 2 2 2 2 2 2 2 7
	2	16
 7 2 2 2 2 2 2 2 2 2 2 2 2 2 2 7
	1	16
 7 2 2 2 2 2 2 2 2 2 2 2 2 2 2 7
	1	16
 7 2 2 2 2 2 2 2 2 2 2 2 2 2 2 7
	1	16
 7 2 2 2 2 2 2 2 2 2 2 2 2 2 2 7
	1	16
 7 2 2 2 2 2 2 2 2 2 2 2 2 2 2 7
	1	16
 7 2 2 2 2 2 2 2 2 2 2 2 2 2 2 7
	1	16
 7 2 2 2 2 2 2 2 2 2 2 2 2 2 2 7
	1	16
 7 2 2 2 2 2 2 2 2 2 2 2 2 2 2 7
	1	10
 7 4 4 4 4 4 4 2 2 7
	1	9
 7 4 4 4 4 4 6 2 7
	1	9
 7 4 4 4 4 4 6 2 7
	1	7
 7 8 8 4 6 2 7
	1	6
 7 8 12 6 2 7
	1	6
 7 8 12 6 2 7
	1	5
 7 8 18 2 7
	1	5
 7 8 18 2 7
	1	4
 7 26 2 7
	1	4
 7 26 2 7
	1	4
 7 26 2 7
	1	4
 7 26 2 7
	1	4
 7 26 2 7
	1	4
 7 26 2 7
	1	4
 7 26 2 7
	1	4
 7 26 2 7
	1	4
 7 26 2 7
	1	4
 7 26 2 7
	1	4
 7 26 2 7
	1	4
 7 26 2 7
	4	4
 7 26 2 7