FORMAT:           OCCAM2MTMOD_1.0
MODEL NAME:       SW-NE BS model
DESCRIPTION:      
MESH FILE:        sw-ne.mesh.txt
MESH TYPE:        PW2D
STATICS FILE:     none
PREJUDICE FILE:   none
BINDING OFFSET:   -5000.0
NUM LAYERS:       33
	2	33
 2 2 2 2 2 2 2 2 2 2 2 2 2 2 2 2 2 2 2 2 2 2 2 2 2 2 2 2 2 2 2 2 2
	2	33
 2 2 2 2 2 2 2 2 2 2 2 2 2 2 2 2 2 2 2 2 2 2 2 2 2 2 2 2 2 2 2 2 2
	2	33
 2 2 2 2 2 2 2 2 2 2 2 2 2 2 2 2 2 2 2 2 2 2 2 2 2 2 2 2 2 2 2 2 2
	2	33
 2 2 2 2 2 2 2 2 2 2 2 2 2 2 2 2 2 2 2 2 2 2 2 2 2 2 2 2 2 2 2 2 2
	2	33
 2 2 2 2 2 2 2 2 2 2 2 2 2 2 2 2 2 2 2 2 2 2 2 2 2 2 2 2 2 2 2 2 2
	2	33
 2 2 2 2 2 2 2 2 2 2 2 2 2 2 2 2 2 2 2 2 2 2 2 2 2 2 2 2 2 2 2 2 2
	2	33
 2 2 2 2 2 2 2 2 2 2 2 2 2 2 2 2 2 2 2 2 2 2 2 2 2 2 2 2 2 2 2 2 2
	2	33
 2 2 2 2 2 2 2 2 2 2 2 2 2 2 2 2 2 2 2 2 2 2 2 2 2 2 2 2 2 2 2 2 2
	2	33
 2 2 2 2 2 2 2 2 2 2 2 2 2 2 2 2 2 2 2 2 2 2 2 2 2 2 2 2 2 2 2 2 2
	2	33
 2 2 2 2 2 2 2 2 2 2 2 2 2 2 2 2 2 2 2 2 2 2 2 2 2 2 2 2 2 2 2 2 2
	2	33
 2 2 2 2 2 2 2 2 2 2 2 2 2 2 2 2 2 2 2 2 2 2 2 2 2 2 2 2 2 2 2 2 2
	2	33
 2 2 2 2 2 2 2 2 2 2 2 2 2 2 2 2 2 2 2 2 2 2 2 2 2 2 2 2 2 2 2 2 2
	2	33
 2 2 2 2 2 2 2 2 2 2 2 2 2 2 2 2 2 2 2 2 2 2 2 2 2 2 2 2 2 2 2 2 2
	2	33
 2 2 2 2 2 2 2 2 2 2 2 2 2 2 2 2 2 2 2 2 2 2 2 2 2 2 2 2 2 2 2 2 2
	2	33
 2 2 2 2 2 2 2 2 2 2 2 2 2 2 2 2 2 2 2 2 2 2 2 2 2 2 2 2 2 2 2 2 2
	2	18
 2 4 4 4 4 4 4 4 4 4 4 4 4 4 4 4 2 2
	2	18
 2 4 4 4 4 4 4 4 4 4 4 4 4 4 4 4 2 2
	2	18
 2 4 4 4 4 4 4 4 4 4 4 4 4 4 4 4 2 2
	2	18
 2 4 4 4 4 4 4 4 4 4 4 4 4 4 4 4 2 2
	2	18
 2 4 4 4 4 4 4 4 4 4 4 4 4 4 4 4 2 2
	2	18
 2 4 4 4 4 4 4 4 4 4 4 4 4 4 4 4 2 2
	2	18
 2 4 4 4 4 4 4 4 4 4 4 4 4 4 4 4 2 2
	2	18
 2 4 4 4 4 4 4 4 4 4 4 4 4 4 4 4 2 2
	2	18
 2 4 4 4 4 4 4 4 4 4 4 4 4 4 4 4 2 2
	2	18
 2 4 4 4 4 4 4 4 4 4 4 4 4 4 4 4 2 2
	2	18
 2 4 4 4 4 4 4 4 4 4 4 4 4 4 4 4 2 2
	2	18
 2 4 4 4 4 4 4 4 4 4 4 4 4 4 4 4 2 2
	2	18
 2 4 4 4 4 4 4 4 4 4 4 4 4 4 4 4 2 2
	2	10
 2 8 8 8 8 8 8 8 6 2
	2	10
 2 8 8 8 8 8 8 8 6 2
	2	10
 2 8 8 8 8 8 8 8 6 2
	2	10
 2 8 8 8 8 8 8 8 6 2
	4	10
 2 8 8 8 8 8 8 8 6 2
NUMBER EXCEPTIONS 0