FORMAT:           OCCAM2MTMOD_1.0
MODEL NAME:       bs-sw-ne-tmf1.0-ep5r20
DESCRIPTION:      bs-sw-ne-tmf1.0-ep5r20
MESH FILE:        Z:\bwcomb\oc2d\bs-sw-ne-tmf1.0-ep5r20\mesh.txt
MESH TYPE:        PW2D
STATICS FILE:     none
PREJUDICE FILE:   none
BINDING OFFSET:   782.5
NUM LAYERS:       50
	2	29
 7 2 2 2 2 2 2 2 2 2 2 2 2 2 2 2 2 2 2 2 2 2 2 2 2 2 2 2 7
	2	29
 7 2 2 2 2 2 2 2 2 2 2 2 2 2 2 2 2 2 2 2 2 2 2 2 2 2 2 2 7
	1	29
 7 2 2 2 2 2 2 2 2 2 2 2 2 2 2 2 2 2 2 2 2 2 2 2 2 2 2 2 7
	1	29
 7 2 2 2 2 2 2 2 2 2 2 2 2 2 2 2 2 2 2 2 2 2 2 2 2 2 2 2 7
	1	29
 7 2 2 2 2 2 2 2 2 2 2 2 2 2 2 2 2 2 2 2 2 2 2 2 2 2 2 2 7
	1	29
 7 2 2 2 2 2 2 2 2 2 2 2 2 2 2 2 2 2 2 2 2 2 2 2 2 2 2 2 7
	1	29
 7 2 2 2 2 2 2 2 2 2 2 2 2 2 2 2 2 2 2 2 2 2 2 2 2 2 2 2 7
	1	29
 7 2 2 2 2 2 2 2 2 2 2 2 2 2 2 2 2 2 2 2 2 2 2 2 2 2 2 2 7
	1	29
 7 2 2 2 2 2 2 2 2 2 2 2 2 2 2 2 2 2 2 2 2 2 2 2 2 2 2 2 7
	1	29
 7 2 2 2 2 2 2 2 2 2 2 2 2 2 2 2 2 2 2 2 2 2 2 2 2 2 2 2 7
	1	29
 7 2 2 2 2 2 2 2 2 2 2 2 2 2 2 2 2 2 2 2 2 2 2 2 2 2 2 2 7
	1	29
 7 2 2 2 2 2 2 2 2 2 2 2 2 2 2 2 2 2 2 2 2 2 2 2 2 2 2 2 7
	1	29
 7 2 2 2 2 2 2 2 2 2 2 2 2 2 2 2 2 2 2 2 2 2 2 2 2 2 2 2 7
	1	29
 7 2 2 2 2 2 2 2 2 2 2 2 2 2 2 2 2 2 2 2 2 2 2 2 2 2 2 2 7
	1	29
 7 2 2 2 2 2 2 2 2 2 2 2 2 2 2 2 2 2 2 2 2 2 2 2 2 2 2 2 7
	1	29
 7 2 2 2 2 2 2 2 2 2 2 2 2 2 2 2 2 2 2 2 2 2 2 2 2 2 2 2 7
	1	29
 7 2 2 2 2 2 2 2 2 2 2 2 2 2 2 2 2 2 2 2 2 2 2 2 2 2 2 2 7
	1	26
 7 2 2 2 2 2 2 2 2 2 2 2 4 4 4 2 2 2 2 2 2 2 2 2 2 7
	1	17
 7 4 4 4 4 4 2 4 4 4 4 4 4 4 2 2 7
	1	17
 7 4 4 4 4 4 2 4 4 4 4 4 4 4 2 2 7
	1	15
 7 4 4 4 4 4 6 4 4 4 4 4 6 2 7
	1	15
 7 4 4 4 4 4 6 4 4 4 4 4 6 2 7
	1	11
 7 8 8 4 6 8 8 4 6 2 7
	1	11
 7 8 8 4 6 8 8 4 6 2 7
	1	9
 7 8 8 10 8 8 10 2 7
	1	9
 7 8 8 10 8 8 10 2 7
	1	8
 7 8 8 10 16 10 2 7
	1	7
 7 16 10 16 10 2 7
	1	7
 7 16 10 16 10 2 7
	1	7
 7 16 10 16 10 2 7
	1	5
 7 26 26 2 7
	1	5
 7 26 26 2 7
	1	5
 7 26 26 2 7
	1	5
 7 26 26 2 7
	1	4
 7 52 2 7
	1	4
 7 52 2 7
	1	4
 7 52 2 7
	1	4
 7 52 2 7
	1	4
 7 52 2 7
	1	4
 7 52 2 7
	1	4
 7 52 2 7
	1	4
 7 52 2 7
	1	4
 7 52 2 7
	1	4
 7 52 2 7
	1	4
 7 52 2 7
	1	4
 7 52 2 7
	1	4
 7 52 2 7
	1	4
 7 52 2 7
	1	4
 7 52 2 7
	4	4
 7 52 2 7
NUMBER EXCEPTIONS 0