FORMAT:           OCCAM2MTDATA_1.0
TITLE:            bsprw + bspr + bspre
SITES:            5
bsprw1
bsprw2
bspr
bspre1
bspre2
OFFSETS (M):
810
865
1000
1100
1250
FREQUENCIES:      15
100.0
64.1529199479
41.1559713784
26.4027573721
16.938139801
10.8663112672
6.97105596851
4.472135955
2.86900579917
1.84055099364
1.18076720555
0.757496640147
0.485956213161
0.311755100411
0.2
DATA BLOCKS:      300
SITE FREQ TYPE DATUM ERROR
1	1	1	0.127172711514	0.116409123297
1	1	5	-0.0464031319246	0.0780568776398
1	1	2	25.4557580074	5.09115160149
1	1	6	29.5218365135	5.9043673027
1	2	1	0.219300981366	0.143918057414
1	2	5	0.0217111536141	0.0913114965225
1	2	2	21.3450910846	4.26901821692
1	2	6	25.6895920098	5.13791840195
1	3	1	0.356875361934	0.197555747384
1	3	5	0.129149329244	0.116940147209
1	3	2	18.3584625283	3.67169250567
1	3	6	22.1100558199	4.42201116398
1	4	1	0.481949977672	0.263490089286
1	4	5	0.241298255497	0.151395359112
1	4	2	15.7687237421	3.15374474841
1	4	6	19.6473007382	3.92946014764
1	5	1	0.627200602745	0.368141612049
1	5	5	0.359466017209	0.198737729639
1	5	2	14.5225330755	2.9045066151
1	5	6	18.3221371466	3.66442742933
1	6	1	0.774951678097	0.517328000173
1	6	5	0.509633371513	0.280832701987
1	6	2	14.5278532158	2.90557064317
1	6	6	16.2079844828	3.24159689657
1	7	1	0.906462785776	0.700288658398
1	7	5	0.652292630328	0.390038014778
1	7	2	14.1169126805	2.8233825361
1	7	6	16.706229317	3.34124586339
1	8	1	1.03400315127	0.939328410988
1	8	5	0.785115827846	0.529578243499
1	8	2	14.1978203197	2.83956406395
1	8	6	17.1857798119	3.43715596238
1	9	1	1.16256201816	1.26292140803
1	9	5	0.869425150347	0.64304217429
1	9	2	14.0377022283	2.80754044565
1	9	6	17.6511730286	3.53023460573
1	10	1	1.30478074136	1.75224588327
1	10	5	0.952856455408	0.77923914718
1	10	2	12.8666105628	2.57332211256
1	10	6	16.3711934473	3.27423868947
1	11	1	1.4405698658	2.3954337974
1	11	5	1.08269843417	1.05078228179
1	11	2	11.8510049231	2.37020098463
1	11	6	15.6636252832	3.13272505665
1	12	1	1.61111213553	3.54753298721
1	12	5	1.19930985833	1.37443487135
1	12	2	11.6634498137	2.33268996273
1	12	6	13.5540115126	2.71080230252
1	13	1	1.7872567434	5.32195319035
1	13	5	1.34317342166	1.9142018368
1	13	2	13.4198719447	2.68397438895
1	13	6	14.1800389849	2.83600779698
1	14	1	1.94089632546	7.58072308087
1	14	5	1.5010977812	2.75367123646
1	14	2	15.8162408063	3.16324816125
1	14	6	17.3226823422	3.46453646844
1	15	1	2.06781032837	10.1537071936
1	15	5	1.62781369773	3.68661685809
1	15	2	20.7814244031	4.15628488062
1	15	6	18.7970163141	3.75940326282
2	1	1	0.209405369417	0.1406758916
2	1	5	0.206274024619	0.139665239868
2	1	2	29.7679572801	5.95359145602
2	1	6	28.1406992361	5.62813984722
2	2	1	0.289873790523	0.169312139426
2	2	5	0.296107228727	0.17175980394
2	2	2	26.1151044969	5.22302089938
2	2	6	23.4311172773	4.68622345547
2	3	1	0.394873598621	0.215619435937
2	3	5	0.422686603134	0.229879852657
2	3	2	22.0747480193	4.41494960386
2	3	6	19.8447980376	3.96895960751
2	4	1	0.504175067141	0.277325225058
2	4	5	0.547665623234	0.306534901894
2	4	2	18.8319906573	3.76639813147
2	4	6	17.3350634367	3.46701268735
2	5	1	0.637545590453	0.377016100707
2	5	5	0.672847976657	0.408942533876
2	5	2	16.321982804	3.2643965608
2	5	6	15.664951276	3.1329902552
2	6	1	0.795943558498	0.542947534632
2	6	5	0.842647899143	0.604591735273
2	6	2	14.3985873712	2.87971747424
2	6	6	13.827554917	2.76551098339
2	7	1	0.932832805164	0.744127084485
2	7	5	0.990574355904	0.849940771704
2	7	2	13.9515448427	2.79030896853
2	7	6	13.9449864869	2.78899729739
2	8	1	1.06730307786	1.01418547142
2	8	5	1.11366576904	1.12844416704
2	8	2	13.3712694352	2.67425388704
2	8	6	14.7266748042	2.94533496084
2	9	1	1.18607068739	1.33316834874
2	9	5	1.23318309419	1.48592675037
2	9	2	13.8931614041	2.77863228082
2	9	6	15.5555412553	3.11110825106
2	10	1	1.30855932373	1.76755782586
2	10	5	1.34640174212	1.92848404027
2	10	2	12.2723675421	2.45447350843
2	10	6	14.8414896913	2.96829793826
2	11	1	1.45445284795	2.47324508627
2	11	5	1.45939627858	2.50155805096
2	11	2	11.530923099	2.30618461979
2	11	6	13.5664800237	2.71329600474
2	12	1	1.63317053551	3.73237131033
2	12	5	1.5959918688	3.42614844514
2	12	2	11.8110301109	2.36220602217
2	12	6	12.7678046051	2.55356092103
2	13	1	1.76424813011	5.0473385626
2	13	5	1.75845395923	4.98044635015
2	13	2	11.7283912629	2.34567825258
2	13	6	12.9247461663	2.58494923325
2	14	1	1.93436111584	7.46750329328
2	14	5	1.90886452061	7.04172122175
2	14	2	15.8439209336	3.16878418673
2	14	6	14.9956118896	2.99912237792
2	15	1	2.08441847879	10.5495220877
2	15	5	2.04512685963	9.63698463597
2	15	2	19.7340467875	3.94680935751
2	15	6	17.1859062432	3.43718124863
3	1	1	0.263492082661	0.0398333101955
3	1	5	0.813269702984	0.141261566706
3	1	2	32.4603772992	1.62301886496
3	1	6	31.7404311162	1.58702155581
3	2	1	0.337055104964	0.0471855933511
3	2	5	0.915701529787	0.178836369752
3	2	2	27.6216728061	1.38108364031
3	2	6	22.5134005522	1.12567002761
3	3	1	0.442115816608	0.060099399444
3	3	5	1.0585301281	0.24847599807
3	3	2	24.1977928519	1.2098896426
3	3	6	17.829831418	0.891491570898
3	4	1	0.529949890095	0.0735705843838
3	4	5	1.19513443308	0.340321000015
3	4	2	21.6377594599	1.08188797299
3	4	6	14.9845717867	0.749228589337
3	5	1	0.649081501198	0.0967911872155
3	5	5	1.33562135966	0.470300754302
3	5	2	19.5735975134	0.978679875672
3	5	6	13.2138272177	0.660691360884
3	6	1	0.78234705215	0.131553185196
3	6	5	1.52320301492	0.724364787714
3	6	2	18.3937287064	0.919686435322
3	6	6	13.9654589045	0.698272945227
3	7	1	0.894528492991	0.170326729956
3	7	5	1.65397453933	0.978878646859
3	7	2	17.0092831407	0.850464157037
3	7	6	14.4482805606	0.722414028031
3	8	1	1.0167413436	0.225681343861
3	8	5	1.77911256343	1.305770579
3	8	2	16.675054822	0.833752741102
3	8	6	15.5246786848	0.776233934241
3	9	1	1.13564549414	0.296756205826
3	9	5	1.89567636793	1.70777512548
3	9	2	15.372374519	0.768618725949
3	9	6	15.711734037	0.78558670185
3	10	1	1.25008093939	0.386220440661
3	10	5	2.01407959114	2.24302392918
3	10	2	13.7086886385	0.685434431926
3	10	6	15.6906464558	0.784532322789
3	11	1	1.41085185653	0.55925023102
3	11	5	2.13681385128	2.97555626594
3	11	2	12.9295137185	0.646475685927
3	11	6	16.0470630528	0.80235315264
3	12	1	1.56681536333	0.800884113457
3	12	5	2.28706190916	4.20548632191
3	12	2	12.7402269186	0.637011345929
3	12	6	14.2563806201	0.712819031006
3	13	1	1.72199061213	1.14484034999
3	13	5	2.46762319674	6.37349298852
3	13	2	13.4774094253	0.673870471263
3	13	6	12.5368871402	0.626844357012
3	14	1	1.87601204748	1.63217365314
3	14	5	2.54769382704	7.66387023565
3	14	2	17.4174571579	0.870872857893
3	14	6	16.7817331169	0.839086655844
3	15	1	2.0205631931	2.27676134194
3	15	5	2.71087111424	11.1590039131
3	15	2	21.2845123391	1.06422561695
3	15	6	20.0511968113	1.00255984056
4	1	1	-0.019994770977	0.0207376502038
4	1	5	-0.248565792246	0.0122514790971
4	1	2	33.5032600135	1.67516300067
4	1	6	29.2454810936	1.46227405468
4	2	1	0.0840012845871	0.0263484820433
4	2	5	-0.0855938540095	0.0178303743628
4	2	2	29.6643310826	1.48321655413
4	2	6	22.1686665956	1.10843332978
4	3	1	0.187920414496	0.0334714656849
4	3	5	0.0827400484339	0.0262720743243
4	3	2	26.2450960564	1.31225480282
4	3	6	17.7572268543	0.887861342714
4	4	1	0.266833804829	0.0401409938032
4	4	5	0.225890716497	0.0365296097092
4	4	2	23.8106276125	1.19053138063
4	4	6	15.7592211184	0.787961055922
4	5	1	0.379491270879	0.0520290129027
4	5	5	0.354671898742	0.0491389887109
4	5	2	20.8195817248	1.04097908624
4	5	6	15.068109183	0.753405459149
4	6	1	0.52021438352	0.071939712713
4	6	5	0.55032983935	0.0771052864601
4	6	2	19.3755270028	0.968776350141
4	6	6	14.6562772978	0.732813864892
4	7	1	0.616302354871	0.0897545906427
4	7	5	0.670727160976	0.101737597247
4	7	2	17.3069873882	0.86534936941
4	7	6	15.5246243795	0.776231218977
4	8	1	0.73653041733	0.118381743797
4	8	5	0.78445184979	0.132192301988
4	8	2	15.9629377887	0.798146889437
4	8	6	16.292743452	0.814637172598
4	9	1	0.84979232587	0.153654980383
4	9	5	0.875807672947	0.163140574966
4	9	2	15.3753663594	0.768768317972
4	9	6	16.2948685109	0.814743425547
4	10	1	0.959206655157	0.197679198165
4	10	5	0.98255636919	0.208598261605
4	10	2	13.6729500563	0.683647502813
4	10	6	15.3536031909	0.767680159545
4	11	1	1.13094401842	0.293560983522
4	11	5	1.13001839904	0.292935978177
4	11	2	12.576940421	0.62884702105
4	11	6	15.4512770638	0.772563853192
4	12	1	1.28426674062	0.417850625153
4	12	5	1.24005704608	0.377408225909
4	12	2	12.4579732173	0.622898660863
4	12	6	13.8960742867	0.694803714335
4	13	1	1.44157885401	0.600251383397
4	13	5	1.39129308887	0.534622711838
4	13	2	13.9945762496	0.699728812478
4	13	6	11.180245552	0.559012277602
4	14	1	1.58845409287	0.841799005825
4	14	5	1.57385189742	0.81396590369
4	14	2	16.5897418303	0.829487091514
4	14	6	14.78824374	0.739412187002
4	15	1	1.71281715237	1.12091186954
4	15	5	1.58335959762	0.831981967169
4	15	2	21.5821700709	1.07910850354
4	15	6	16.8674335177	0.843371675884
5	1	1	-0.246286874184	0.0492637460458
5	1	5	-0.343607552332	0.0393737477498
5	1	2	26.5974576935	5.31949153869
5	1	6	29.9367658636	5.98735317271
5	2	1	-0.111640828936	0.0671697107359
5	2	5	-0.214750011769	0.0529741863805
5	2	2	21.8106303176	4.36212606351
5	2	6	24.919537275	4.98390745499
5	3	1	0.0424254497013	0.0957722645862
5	3	5	-0.0728459978325	0.073446027196
5	3	2	18.8053869074	3.76107738148
5	3	6	20.0928330465	4.01856660929
5	4	1	0.169280209034	0.128260968808
5	4	5	0.0632330430451	0.100472532692
5	4	2	17.0720143915	3.41440287829
5	4	6	17.4201618437	3.48403236874
5	5	1	0.308486689924	0.176726223445
5	5	5	0.190798831043	0.134776178489
5	5	2	15.5935983896	3.11871967792
5	5	6	16.3941556308	3.27883112617
5	6	1	0.459781087593	0.250377555252
5	6	5	0.361381105158	0.199616029132
5	6	2	14.9274873074	2.98549746149
5	6	6	15.0386229135	3.0077245827
5	7	1	0.586777392125	0.335422119663
5	7	5	0.490854241566	0.268948142112
5	7	2	13.9687202389	2.79374404778
5	7	6	15.5622930709	3.11245861418
5	8	1	0.69928227586	0.434606865721
5	8	5	0.595228714059	0.342013320528
5	8	2	13.2655821194	2.65311642389
5	8	6	15.8115564128	3.16231128255
5	9	1	0.81728035131	0.570288558106
5	9	5	0.685575599968	0.421104523791
5	9	2	12.8970682905	2.57941365811
5	9	6	15.4251862609	3.08503725217
5	10	1	0.933956173471	0.746054373178
5	10	5	0.770708500379	0.512298173331
5	10	2	12.2069073373	2.44138146745
5	10	6	14.8995575295	2.9799115059
5	11	1	1.09420323317	1.07899029924
5	11	5	0.918419636286	0.719836631036
5	11	2	11.7982750244	2.35965500489
5	11	6	14.4020292151	2.88040584301
5	12	1	1.2686462745	1.61235467609
5	12	5	1.08002846528	1.04434206731
5	12	2	12.3816329446	2.47632658892
5	12	6	13.1648532077	2.63297064153
5	13	1	1.42121217206	2.29100733173
5	13	5	1.25393369175	1.55864782812
5	13	2	12.5108174396	2.50216348793
5	13	6	12.860999377	2.5721998754
5	14	1	1.59546066958	3.4219603772
5	14	5	1.41827046954	2.27554158476
5	14	2	15.6715849524	3.13431699048
5	14	6	16.0671956192	3.21343912383
5	15	1	1.74445062149	4.82241885261
5	15	5	1.52410848501	2.90350642885
5	15	2	19.6486134359	3.92972268718
5	15	6	17.5140025429	3.50280050857
